<?xml version="1.0" encoding="utf-8"?>
<!-- Generator: Adobe Illustrator 20.0.0, SVG Export Plug-In . SVG Version: 6.00 Build 0)  -->
<svg version="1.1" id="Layer_1" xmlns="http://www.w3.org/2000/svg" xmlns:xlink="http://www.w3.org/1999/xlink" x="0px" y="0px"
	 width="396.1px" height="72.3px" viewBox="0 0 396.1 72.3" style="enable-background:new 0 0 396.1 72.3;" xml:space="preserve">
<style type="text/css">
	.st0{fill:#FFFFFF;}
</style>
<g>
	<polygon class="st0" points="44.2,0.4 44.2,25.8 5.6,25.8 5.6,0.4 0,0.4 0,57 5.6,57 5.6,30.8 44.2,30.8 44.2,57 49.7,57 49.7,0.4 
			"/>
	<rect x="66.7" y="0.4" class="st0" width="5.6" height="56.6"/>
	<polygon class="st0" points="88,0.4 88,57 126.2,57 126.2,52.1 93.6,52.1 93.6,0.4 	"/>
	<polygon class="st0" points="135.4,0.4 135.4,57 173.5,57 173.5,52.1 140.9,52.1 140.9,0.4 	"/>
	<path class="st0" d="M209.9,0.2l-28.3,56.9h6.3l9.3-19h29.7l9.5,19h6.3l-29-56.9H209.9z M211.8,8.1l12.6,25h-24.9L211.8,8.1z"/>
	<g>
		<path class="st0" d="M305.9,72.3c-5,0-9.9-2.1-14-6c-5.6-5.2-10.3-12.9-14.5-19.7c-4.6-7.5-8.6-14-12-14h-9.1V57h-5.6V0.4H268
			c5.2,0,8.9,0.5,12.1,1.5c6.9,2.5,10.6,7.3,10.6,14.1c0,8.4-6.3,14.2-17,15.6c2.4,2,5,6.3,8.1,11.6c3.9,6.5,8.4,13.9,13.7,19
			c3.5,3.4,7.1,5,10.8,5c0.8,0,3.5-0.1,5.3-0.7l0.6-0.2l1.3,4.9l-0.5,0.2C311.2,72,308.7,72.3,305.9,72.3 M266,27.6
			c4.4,0,7.5-0.3,9.9-1.1c5.9-1.8,9-5.4,9-10.7c0-4-2.2-7.3-6.2-8.9c-3.2-1.3-6.5-1.6-10.8-1.6h-11.6v22.3H266z"/>
	</g>
	<polygon class="st0" points="343,0.4 322.6,29.4 301.4,0.4 295,0.4 319.7,34.4 319.7,57 325.2,57 325.2,34.5 349.4,0.4 	"/>
	<path class="st0" d="M372.3,57.9c-9,0-16.7-2.3-21.3-6.4l-0.4-0.3l3.2-4.1l0.4,0.4c4,3.5,10.3,5.4,18,5.4c8.7,0,18.1-3.2,18.1-12
		c0-7.2-7.5-8.4-16.2-9.8c-6.3-1-12.9-2.1-17-5.8c-2.7-2.4-4.1-5.6-4.1-9.7C353,6.1,361.5,0,374.6,0c8.6,0,16.2,2.7,19.6,5.2
		l0.4,0.3l-2.7,4.2l-0.5-0.3c-2.4-1.7-8.6-4.5-16.5-4.5c-11.9,0-16.1,5.4-16.1,10.4c0,8.1,8.2,9.4,16.9,10.7
		c9.5,1.5,20.4,3.2,20.4,14.9C396.2,51.3,386.8,57.9,372.3,57.9"/>
</g>
</svg>
